Pacotes 📦
…
---
# Discussão em sala

```r
calcular_media_volume(sistema = "Guarapiranga")
```

```
#> # A tibble: 256 x 4
#>    sistema        ano   mes media_volume_porcentagem
#>    <chr>        <dbl> <dbl>                    <dbl>
#>  1 Guarapiranga  2000     1                     42.1
#>  2 Guarapiranga  2000     2                     50.1
#>  3 Guarapiranga  2000     3                     60.0
#>  4 Guarapiranga  2000     4                     60.3
#>  5 Guarapiranga  2000     5                     47.9
#>  6 Guarapiranga  2000     6                     36.6
#>  7 Guarapiranga  2000     7                     27.5
#>  8 Guarapiranga  2000     8                     21.3
#>  9 Guarapiranga  2000     9                     26.0
#> 10 Guarapiranga  2000    10                     28.4
#> # … with 246 more rows
```
…
